# Blender v2.79 (sub 0) OBJ File: ''
# www.blender.org
mtllib SM_Lusty.mtl
o Book_01.002_Group43272.002
v 5.985155 0.563101 0.785770
v 5.856009 0.568706 0.689071
v 5.910520 -0.508858 0.785201
v 5.801036 -0.527190 0.699115
v -0.671689 -0.517461 0.801224
v -0.790808 -0.508976 0.691865
v -0.682414 -0.528612 0.703696
v -0.794704 0.558780 0.698321
v -0.683597 0.557782 0.808385
v -0.688485 0.570532 0.707270
v 5.854315 0.557037 -3.796868
v 5.762383 0.567437 -3.710760
v -0.796427 -0.497583 -3.668267
v -0.679469 -0.502731 -3.769871
v -0.687214 -0.526319 -3.670958
v -0.674117 0.514365 -3.787838
v -0.781667 0.523421 -3.695868
v -0.683122 0.551273 -3.697671
v 5.771274 -0.488556 -3.751009
v 5.703881 -0.521224 -3.665149
v 5.574212 -0.306570 -3.783890
v 5.805171 -0.307349 -3.766736
v 5.568371 -0.492190 -3.745474
v 5.423111 -0.531321 -3.653171
v 5.197855 -0.489998 -3.730584
v 4.801562 -0.531019 -3.634554
v -0.148597 -0.529691 0.709801
v -0.542494 -0.529367 0.705997
v -0.684603 -0.528647 0.584285
v -0.376434 -0.510886 0.795282
v -0.372395 -0.325892 0.740588
v -0.662625 -0.316416 0.736218
v -0.665836 0.024835 0.688903
v -0.818022 0.028355 0.598459
v -0.816769 -0.317653 0.645562
v -0.815620 -0.328570 0.411762
v -0.800979 -0.505010 0.428362
v -0.690211 -0.529401 0.233848
v 3.817434 -0.528495 -3.612436
v 4.312597 -0.481995 -3.700387
v 5.198543 -0.305398 -3.770486
v 5.594954 0.028096 -3.830310
v 5.818116 0.025826 -3.789879
v 5.837296 -0.296474 -3.565523
v 5.818372 -0.489739 -3.555719
v 5.726018 -0.529514 -3.417920
v 0.771345 -0.529935 0.719905
v 0.275694 -0.504472 0.796943
v 0.277375 -0.335443 0.743621
v -0.385792 0.022196 0.689544
v -0.673066 0.360945 0.736241
v -0.820483 0.362594 0.648000
v -0.819198 0.033048 0.382418
v -0.815846 -0.327077 -0.132561
v -0.811131 -0.502919 -0.131655
v -0.707248 -0.528099 -0.570776
v -0.807759 -0.495453 -1.015115
v -0.708234 -0.529001 -1.460277
v 1.821041 -0.530903 -3.628302
v 2.816716 -0.524806 -3.616150
v 2.323143 -0.480354 -3.697505
v 3.315713 -0.481046 -3.691763
v 3.316983 -0.301306 -3.728362
v 4.313825 -0.296698 -3.738861
v 4.325179 0.053895 -3.798097
v 5.219526 0.033705 -3.820042
v 5.231714 0.351531 -3.850302
v 5.618205 0.349096 -3.852699
v 5.847457 0.342920 -3.809883
v 5.866981 0.346700 -3.592086
v 5.847031 0.034933 -3.581366
v 5.856518 0.036193 -3.232775
v 5.846536 -0.294475 -3.208559
v 5.830378 -0.485120 -3.206716
v 5.753202 -0.530268 -2.823488
v 5.845566 -0.489206 -2.378726
v 5.782306 -0.529858 -1.927621
v 2.820931 -0.529986 0.726243
v 1.793598 -0.529881 0.724422
v 2.306031 -0.502550 0.805557
v 1.281213 -0.503755 0.804658
v 1.283419 -0.338208 0.745592
v 1.285490 0.022739 0.690549
v 0.277457 0.023913 0.690307
v 0.279020 0.376471 0.741460
v -0.384215 0.371244 0.740222
v -0.382815 0.552036 0.801078
v -0.553688 0.570394 0.709946
v -0.691218 0.571210 0.585070
v -0.801481 0.547655 0.429045
v -0.701874 0.571049 0.230930
v -0.825853 0.362892 0.407629
v -0.810943 0.541400 -0.136567
v -0.820680 0.364026 -0.133757
v -0.819767 0.036994 -0.132144
v -0.817834 0.364613 -1.020255
v -0.818408 0.042875 -1.017879
v -0.816551 -0.323039 -1.015882
v -0.817317 0.037189 -1.911914
v -0.816844 -0.333841 -1.909551
v -0.808691 -0.503567 -1.908794
v -0.816600 -0.335653 -2.792707
v -0.800271 -0.504170 -2.798827
v -0.703214 -0.530376 -2.358725
v -0.690606 -0.531797 -3.188463
v -0.798174 -0.499248 -3.406037
v 0.803433 -0.526481 -3.643206
v 1.315939 -0.492328 -3.722090
v 2.321240 -0.306976 -3.735275
v 3.319385 0.064712 -3.794753
v 4.324993 0.368161 -3.829085
v 5.236592 0.533095 -3.815553
v 5.627845 0.539124 -3.812253
v 5.470787 0.565927 -3.717656
v 5.778273 0.570247 -3.450895
v 5.870778 0.540006 -3.595902
v 5.881489 0.360337 -3.227059
v 5.853538 0.029919 -2.369670
v 5.863061 -0.311663 -2.377247
v 5.869398 -0.488684 -1.481445
v 5.796101 -0.528234 -1.035064
v 3.849766 -0.529721 0.719873
v 3.335160 -0.501038 0.803705
v 2.307029 -0.336695 0.744285
v 2.307027 0.019889 0.690735
v 1.281990 0.374807 0.740953
v 0.278433 0.549866 0.795712
v -0.150040 0.570507 0.707427
v -0.710525 0.570001 -0.575122
v -0.814731 0.540573 -1.021767
v -0.819014 0.367504 -1.914337
v -0.813314 0.027876 -2.798590
v -0.815508 -0.320349 -3.411190
v -0.690681 -0.528054 -3.553582
v -0.554427 -0.529311 -3.670585
v -0.136007 -0.528564 -3.661083
v -0.374125 -0.499891 -3.762556
v 0.307509 -0.492894 -3.741824
v 0.309551 -0.329721 -3.797793
v 1.320810 -0.316235 -3.765162
v 1.299328 0.051261 -3.823159
v 2.309131 0.078201 -3.806169
v 2.311121 0.381249 -3.829434
v 3.313783 0.381184 -3.819030
v 3.312776 0.537488 -3.770097
v 4.321370 0.534269 -3.795831
v 3.816193 0.567103 -3.696535
v 4.825635 0.566210 -3.719853
v 5.797069 0.570837 -2.821112
v 5.882397 0.538970 -3.219402
v 5.895262 0.543184 -2.378380
v 5.890955 0.378926 -2.375647
v 5.914474 0.374931 -1.480302
v 5.894351 0.035390 -1.485930
v 5.888530 -0.322589 -1.483817
v 5.902534 -0.336303 -0.588113
v 5.893209 -0.497976 -0.588957
v 5.800237 -0.530277 -0.145713
v 5.907202 -0.504269 0.216232
v 5.802078 -0.529821 0.434132
v 5.502913 -0.529460 0.703909
v 4.859758 -0.529913 0.706126
v 5.264510 -0.503820 0.793193
v 4.361846 -0.502669 0.799359
v 4.358815 -0.332267 0.742922
v 3.334233 -0.334285 0.744033
v 3.332348 0.020648 0.690763
v 3.335381 0.377840 0.741989
v 2.306174 0.376857 0.741364
v 2.304933 0.543112 0.799054
v 1.279233 0.543559 0.800438
v 1.792019 0.571982 0.732898
v 0.770972 0.571316 0.719299
v -0.709773 0.568177 -1.469068
v -0.811419 0.538263 -1.914899
v -0.705783 0.566730 -2.363138
v -0.804315 0.538750 -2.806123
v -0.815317 0.367759 -2.802532
v -0.812343 0.350149 -3.432558
v -0.809875 0.011344 -3.434738
v -0.800661 0.013344 -3.694103
v -0.810861 -0.314788 -3.674273
v -0.670682 -0.324091 -3.821626
v -0.377085 -0.333720 -3.821422
v 0.290629 0.010560 -3.842215
v 1.273342 0.367065 -3.850869
v 2.310963 0.535980 -3.777228
v 2.813732 0.569386 -3.671945
v 5.812519 0.571002 -1.924869
v 5.904941 0.538340 -1.475563
v 5.917423 0.362414 -0.592136
v 5.922748 0.016054 -0.591685
v 5.929543 -0.318860 0.205457
v 5.913301 -0.513297 0.567367
v 5.660508 -0.507157 0.791717
v 5.266684 -0.324320 0.740931
v 4.355426 0.023718 0.690411
v 4.360180 0.377632 0.742637
v 3.337089 0.545395 0.798222
v 2.821163 0.571720 0.734198
v -0.688614 0.565408 -3.199918
v -0.788608 0.529478 -3.428085
v -0.803103 0.332954 -3.694389
v -0.661216 0.010520 -3.845840
v -0.384720 0.001435 -3.855779
v -0.385556 0.338247 -3.853366
v 0.268772 0.346532 -3.854578
v 0.264519 0.512490 -3.793458
v 1.269630 0.526289 -3.803077
v 0.755764 0.559648 -3.709042
v 1.792600 0.564112 -3.706798
v 5.812176 0.569483 -1.030594
v 5.922827 0.534473 -0.592498
v 5.840874 0.568413 -0.157923
v 5.964145 0.545898 0.199561
v 5.965232 0.369874 0.192561
v 5.950411 0.022468 0.196314
v 5.960942 0.025378 0.493992
v 5.942684 -0.327931 0.546168
v 5.909494 -0.310171 0.731422
v 5.656956 -0.316162 0.738028
v 5.683779 0.025557 0.690102
v 5.277435 0.029377 0.690070
v 5.286072 0.372286 0.740024
v 5.289528 0.546861 0.793557
v 4.363659 0.544329 0.799152
v 4.863463 0.571193 0.709857
v 3.851493 0.571807 0.721539
v -0.685778 0.561362 -3.579149
v -0.555308 0.555808 -3.698651
v -0.386075 0.509843 -3.788930
v -0.671412 0.332517 -3.838696
v -0.149932 0.555617 -3.697353
v 5.851528 0.569806 0.412115
v 5.968587 0.547152 0.551579
v 5.980873 0.370007 0.528704
v 5.924194 0.024522 0.681270
v 5.948756 0.350702 0.722318
v 5.700312 0.364085 0.736934
v 5.712433 0.550846 0.790349
v 5.551810 0.571306 0.695496
vt 0.475520 0.221765
vt 0.493326 0.220067
vt 0.496120 0.242906
vt 0.476470 0.242013
vt 0.809119 0.583333
vt 0.818800 0.594940
vt 0.809816 0.604002
vt 0.445731 0.222749
vt 0.379354 0.223357
vt 0.378920 0.185960
vt 0.445001 0.186380
vt 0.691739 0.601067
vt 0.692010 0.582564
vt 0.712260 0.580990
vt 0.713746 0.597115
vt 0.546343 0.010550
vt 0.529302 0.020058
vt 0.516218 0.011524
vt 0.944624 0.439407
vt 0.944516 0.515468
vt 0.904426 0.515502
vt 0.904043 0.439180
vt 0.017981 0.221593
vt 0.018729 0.186170
vt 0.038782 0.185949
vt 0.038646 0.223008
vt 0.840936 0.218190
vt 0.841431 0.207773
vt 0.849569 0.208124
vt 0.811230 0.206650
vt 0.818236 0.214076
vt 0.809589 0.224127
vt 0.788139 0.224533
vt 0.787577 0.205723
vt 0.509732 0.039295
vt 0.509192 0.020931
vt 0.529758 0.038891
vt 0.516202 0.134173
vt 0.509470 0.124991
vt 0.529399 0.126870
vt 0.717578 0.227235
vt 0.696973 0.228527
vt 0.695895 0.211819
vt 0.715876 0.210034
vt 0.961829 0.140194
vt 0.945195 0.131794
vt 0.972771 0.131495
vt 0.688615 0.290066
vt 0.688427 0.239437
vt 0.696986 0.257642
vt 0.946495 0.073917
vt 0.974397 0.074314
vt 0.973117 0.111030
vt 0.945084 0.111260
vt 0.982715 0.139167
vt 0.915298 0.140514
vt 0.878358 0.132023
vt 0.972432 0.576953
vt 0.970709 0.587148
vt 0.963648 0.584113
vt 0.712223 0.483320
vt 0.713986 0.405859
vt 0.753749 0.405788
vt 0.751384 0.483345
vt 0.976897 0.018564
vt 0.993812 0.016605
vt 0.993234 0.039997
vt 0.975906 0.039483
vt 0.963989 0.563170
vt 0.963778 0.439514
vt 0.963762 0.515603
vt 0.016770 0.242985
vt 0.038488 0.242863
vt 0.944887 0.561918
vt 0.867819 0.581763
vt 0.867306 0.595501
vt 0.844738 0.595625
vt 0.848190 0.584592
vt 0.972126 0.478061
vt 0.972981 0.546870
vt 0.802575 0.131639
vt 0.764669 0.139545
vt 0.727392 0.130807
vt 0.791518 0.406281
vt 0.791566 0.329033
vt 0.809624 0.328760
vt 0.809666 0.406624
vt 0.945506 0.362237
vt 0.904567 0.362058
vt 0.905608 0.285510
vt 0.945861 0.285993
vt 0.695927 0.328461
vt 0.268982 0.123047
vt 0.305756 0.130135
vt 0.232166 0.130112
vt 0.904820 0.560091
vt 0.944219 0.581560
vt 0.905340 0.579188
vt 0.754028 0.255456
vt 0.717886 0.257598
vt 0.753749 0.225560
vt 0.086570 0.147880
vt 0.039665 0.148981
vt 0.039211 0.128836
vt 0.086510 0.129379
vt 0.991367 0.074691
vt 0.055485 0.250676
vt 0.086462 0.242833
vt 0.158983 0.148023
vt 0.159047 0.186261
vt 0.086527 0.186255
vt 0.715525 0.328739
vt 0.753114 0.329493
vt 0.195535 0.122843
vt 0.688923 0.218586
vt 0.752525 0.207532
vt 0.980532 0.591651
vt 0.967974 0.595468
vt 0.849062 0.438805
vt 0.868480 0.438948
vt 0.868344 0.515249
vt 0.848790 0.514959
vt 0.905803 0.593557
vt 0.868275 0.561604
vt 0.689573 0.138877
vt 0.026274 0.250907
vt 0.726993 0.068324
vt 0.803217 0.070119
vt 0.802798 0.111383
vt 0.727508 0.111365
vt 0.964218 0.362278
vt 0.840592 0.140721
vt 0.018920 0.150230
vt 0.879350 0.071822
vt 0.878438 0.111105
vt 0.972243 0.400897
vt 0.817518 0.236609
vt 0.809284 0.256653
vt 0.232282 0.223712
vt 0.158795 0.223559
vt 0.232289 0.185941
vt 0.802988 0.034683
vt 0.879568 0.036920
vt 0.947372 0.039228
vt 0.879430 0.018340
vt 0.947803 0.019224
vt 0.529921 0.109024
vt 0.509637 0.107797
vt 0.789486 0.551803
vt 0.789167 0.580857
vt 0.751150 0.577178
vt 0.751171 0.551526
vt 0.305697 0.185848
vt 0.232253 0.148230
vt 0.305736 0.148315
vt 0.789662 0.255953
vt 0.055837 0.121604
vt 0.692919 0.552545
vt 0.713483 0.551807
vt 0.086549 0.223900
vt 0.688480 0.367151
vt 0.158891 0.129958
vt 0.122358 0.122476
vt 0.840882 0.323133
vt 0.849213 0.285191
vt 0.849203 0.361840
vt 0.839958 0.576954
vt 0.848165 0.563308
vt 0.158629 0.241996
vt 0.868083 0.361878
vt 0.016644 0.251383
vt 0.509653 0.073070
vt 0.492784 0.072998
vt 0.494234 0.037347
vt 0.493810 0.109449
vt 0.499088 0.128441
vt 0.840121 0.546541
vt 0.840455 0.251197
vt 0.849302 0.231492
vt 0.964605 0.285507
vt 0.840561 0.477255
vt 0.973297 0.251645
vt 0.964231 0.232733
vt 0.868070 0.285360
vt 0.907154 0.230321
vt 0.944209 0.232267
vt 0.652248 0.129967
vt 0.614596 0.137542
vt 0.972620 0.323549
vt 0.802978 0.016725
vt 0.652971 0.110638
vt 0.817051 0.290725
vt 0.817033 0.367583
vt 0.965124 0.010041
vt 0.506798 0.132215
vt 0.809423 0.483845
vt 0.790098 0.483650
vt 0.986859 0.009296
vt 0.943574 0.209295
vt 0.964090 0.209826
vt 0.445995 0.241689
vt 0.415417 0.249157
vt 0.379634 0.241456
vt 0.306018 0.223608
vt 0.306199 0.241807
vt 0.232229 0.241842
vt 0.695511 0.405956
vt 0.687440 0.444418
vt 0.694341 0.483119
vt 0.685358 0.521045
vt 0.342579 0.122690
vt 0.683908 0.571044
vt 0.379185 0.129861
vt 0.269267 0.247851
vt 0.122137 0.249402
vt 0.869352 0.230841
vt 0.840700 0.400260
vt 0.841491 0.587263
vt 0.529572 0.074096
vt 0.578247 0.073873
vt 0.578942 0.110407
vt 0.906787 0.207676
vt 0.817546 0.521815
vt 0.808798 0.552703
vt 0.727127 0.034835
vt 0.972935 0.219787
vt 0.577034 0.038006
vt 0.576786 0.019532
vt 0.650108 0.019217
vt 0.727093 0.017188
vt 0.650274 0.036739
vt 0.578342 0.128436
vt 0.546011 0.135957
vt 0.651910 0.070712
vt 0.764961 0.007499
vt 0.841286 0.009331
vt 0.917192 0.010587
vt 0.379039 0.148333
vt 0.444079 0.148907
vt 0.472042 0.149707
vt 0.443878 0.129505
vt 0.472138 0.129276
vt 0.460976 0.121713
vt 0.414837 0.121780
vt 0.870977 0.207973
vt 0.195448 0.248186
vt 0.502081 0.140875
vt 0.499422 0.016972
vt 0.506667 0.013271
vt 0.027319 0.120965
vt 0.818071 0.445210
vt 0.818036 0.570663
vt 0.688377 0.010267
vt 0.944910 0.595861
vt 0.343044 0.248564
vt 0.990376 0.111190
vt 0.987847 0.131055
vt 0.612660 0.010674
vt 0.750674 0.593526
vt 0.474170 0.185852
vt 0.683374 0.593575
vt 0.486742 0.250682
vt 0.464855 0.250106
vt 0.017895 0.128612
vt 0.489949 0.128965
vt 0.490096 0.150259
vt 0.491424 0.185646
vt 0.482203 0.121542
vt 0.786566 0.597609
vn 0.0214 -0.2124 0.9769
vn 0.6852 -0.1895 0.7033
vn 0.6053 0.4824 0.6332
vn 0.0146 0.5153 0.8569
vn 0.7720 0.6356 -0.0079
vn 0.0454 0.9979 0.0464
vn 0.0032 -0.2202 0.9754
vn 0.0011 -0.2300 0.9732
vn 0.0005 0.0007 1.0000
vn 0.0016 -0.0010 1.0000
vn 0.5620 -0.4734 0.6782
vn 0.7230 -0.6904 0.0249
vn 0.9960 -0.0706 0.0540
vn 0.6760 0.1063 0.7292
vn -0.0058 0.8997 -0.4364
vn -0.0078 0.6598 -0.7514
vn 0.0001 0.9046 -0.4263
vn -0.9997 -0.0247 -0.0003
vn -0.9996 -0.0278 0.0019
vn -1.0000 -0.0075 -0.0016
vn -1.0000 -0.0033 -0.0008
vn -0.2930 -0.2164 0.9313
vn -0.2731 -0.0043 0.9620
vn -0.0037 0.0010 1.0000
vn 0.0013 -0.2336 0.9723
vn -0.3171 0.9476 -0.0398
vn -0.1942 0.9373 -0.2894
vn -0.7411 0.5738 -0.3487
vn 0.5911 0.6018 -0.5371
vn 0.0783 0.9929 -0.0899
vn 0.8085 0.5870 -0.0413
vn 0.9967 -0.0478 -0.0661
vn 0.7194 -0.0178 -0.6944
vn -0.3989 0.1200 -0.9091
vn -0.3070 0.5899 -0.7468
vn -0.0171 0.1666 -0.9859
vn 0.0065 -0.9629 -0.2697
vn -0.3029 -0.6432 -0.7032
vn 0.0179 -0.7165 -0.6973
vn 0.9921 -0.0784 -0.0979
vn 0.7887 -0.6073 -0.0953
vn 0.5049 -0.5792 -0.6401
vn 0.6827 -0.1407 -0.7170
vn -0.0141 -0.9106 -0.4130
vn -0.0292 -0.6150 -0.7880
vn 0.0014 -0.6332 -0.7740
vn 0.4548 -0.8905 -0.0136
vn 0.3820 -0.9240 -0.0172
vn 0.8203 -0.5714 -0.0242
vn -0.0270 -0.1176 -0.9927
vn 0.0630 -0.1024 -0.9927
vn 0.0194 -0.1511 -0.9883
vn -0.0347 -0.1769 -0.9836
vn 0.1797 -0.9590 -0.2191
vn -0.0228 -0.8792 -0.4759
vn -0.0199 -0.5763 -0.8170
vn -0.1900 -0.9818 -0.0020
vn -0.1306 -0.9876 0.0871
vn -0.7334 -0.5387 0.4146
vn 0.9973 -0.0689 -0.0262
vn 0.9980 -0.0562 -0.0280
vn 0.9990 -0.0342 -0.0289
vn 0.9990 -0.0331 -0.0309
vn 0.0319 0.6598 -0.7507
vn 0.0724 0.0420 -0.9965
vn -0.7520 -0.6591 0.0105
vn -0.7970 -0.6040 0.0005
vn -0.7694 -0.6387 0.0036
vn -0.2672 0.4627 0.8453
vn 0.0082 0.5013 0.8653
vn -0.9990 -0.0445 0.0074
vn -0.8892 -0.0542 0.4543
vn -0.7146 0.5699 0.4056
vn -0.2711 -0.9625 -0.0074
vn -0.2140 -0.9768 0.0014
vn -0.0013 -0.5845 -0.8114
vn 0.0026 -0.8698 -0.4933
vn 0.0160 -0.5780 -0.8159
vn 0.9996 -0.0189 -0.0210
vn 0.9989 -0.0433 -0.0176
vn 0.8042 0.5942 -0.0129
vn 0.8090 0.5877 -0.0083
vn -0.9995 -0.0303 -0.0016
vn -1.0000 -0.0017 -0.0018
vn -1.0000 0.0010 -0.0038
vn -0.9993 -0.0384 -0.0038
vn 0.8282 -0.5600 -0.0218
vn 0.0019 -0.9413 0.3375
vn 0.0025 -0.4288 0.9034
vn -0.0003 -0.4316 0.9021
vn -0.9999 -0.0110 0.0025
vn -0.8871 0.0475 0.4592
vn -0.8863 -0.0120 0.4630
vn 0.9986 -0.0493 -0.0177
vn 0.9984 -0.0531 -0.0207
vn 0.9952 -0.0572 -0.0788
vn -0.0025 0.2273 0.9738
vn -0.0015 0.2199 0.9755
vn 0.0029 -0.5091 0.8607
vn -0.0043 -0.4633 0.8862
vn 0.7077 -0.0982 -0.6996
vn 0.0038 0.9784 0.2066
vn -0.0020 0.4833 0.8755
vn -0.0012 0.2408 0.9706
vn -0.0001 0.0036 1.0000
vn -0.0009 0.0019 1.0000
vn 0.9986 -0.0483 -0.0234
vn 0.9989 -0.0425 -0.0213
vn 0.0006 -0.9493 0.3143
vn 0.0140 -0.9876 0.1565
vn -0.2656 -0.4880 0.8314
vn -0.7852 0.6193 -0.0015
vn -0.9999 0.0162 -0.0007
vn -0.9996 0.0297 -0.0007
vn -0.7771 0.6294 0.0017
vn -0.9988 0.0478 0.0084
vn 0.0204 -0.8782 -0.4778
vn 0.0141 0.9876 0.1561
vn 0.0163 -0.1258 -0.9919
vn 0.0008 -0.1293 -0.9916
vn -0.0003 -0.1900 -0.9818
vn 0.0174 -0.1949 -0.9807
vn -0.7713 -0.6365 -0.0007
vn -0.0054 -0.8701 -0.4928
vn -0.2834 0.1973 0.9385
vn -0.0184 -0.1275 -0.9917
vn -0.0211 -0.1839 -0.9827
vn -0.2826 -0.9592 0.0078
vn 0.2962 0.9550 -0.0113
vn 0.8140 0.5805 -0.0207
vn 0.0002 -0.2349 0.9720
vn -0.0007 -0.2333 0.9724
vn -0.0000 0.0042 1.0000
vn -0.0011 0.1005 -0.9949
vn -0.0174 0.0646 -0.9978
vn -0.0160 0.0533 -0.9984
vn -0.0141 0.6585 -0.7525
vn -0.0062 0.6563 -0.7545
vn 0.0128 -0.2115 -0.9773
vn -0.3800 -0.1474 -0.9132
vn 0.9990 -0.0086 -0.0438
vn 0.9987 -0.0388 0.0346
vn 0.9966 -0.0538 0.0618
vn 0.9982 -0.0454 -0.0400
vn 0.0000 0.0028 1.0000
vn 0.0001 0.2465 0.9691
vn 0.0007 0.2419 0.9703
vn 0.9987 -0.0476 -0.0208
vn 0.0068 -0.9713 0.2376
vn 0.7482 -0.6632 -0.0205
vn 0.9957 -0.0871 -0.0318
vn -0.0001 -0.2288 0.9735
vn 0.4751 -0.8798 -0.0119
vn -0.0025 -0.4465 0.8948
vn -0.0017 -0.9528 0.3035
vn -0.2652 0.9642 -0.0021
vn -0.7668 0.6418 -0.0117
vn -0.7846 0.6200 -0.0039
vn -0.1582 0.9872 -0.0177
vn -0.7449 0.6671 0.0056
vn -0.0041 0.4253 0.9050
vn -0.9998 0.0195 -0.0029
vn -0.0790 0.9928 0.0903
vn -0.4049 -0.0280 -0.9139
vn -0.9225 -0.0048 -0.3860
vn -0.9211 0.0610 -0.3845
vn -0.9241 -0.0553 -0.3780
vn -0.7540 -0.5778 -0.3124
vn -0.2398 0.9708 -0.0039
vn -0.2924 0.9561 -0.0191
vn -0.7764 0.6297 -0.0257
vn -0.7639 -0.6454 -0.0044
vn -0.2717 0.9624 0.0002
vn -0.2712 -0.9625 -0.0083
vn -0.7689 -0.6393 -0.0109
vn -0.9993 0.0356 -0.0081
vn -0.9998 0.0055 -0.0177
vn -0.9992 -0.0374 -0.0116
vn 0.0172 -0.6543 -0.7560
vn 0.0072 -0.9336 -0.3582
vn -0.2526 -0.9676 -0.0016
vn -0.0051 0.6885 -0.7252
vn 0.0277 -0.2040 -0.9786
vn 0.3092 0.9509 -0.0093
vn 0.3242 0.9460 0.0011
vn -0.0080 0.9565 -0.2915
vn -0.1803 -0.9689 -0.1692
vn 0.8142 0.5799 -0.0274
vn 0.9994 -0.0086 -0.0334
vn 0.0059 0.4847 0.8747
vn -0.0002 0.9592 0.2828
vn 0.0036 0.4508 0.8926
vn -0.0001 -0.2330 0.9725
vn 0.0025 0.4286 0.9035
vn 0.0003 0.4007 0.9162
vn 0.8248 -0.5651 -0.0182
vn 0.3790 -0.9252 -0.0177
vn 0.7839 -0.6206 -0.0173
vn 0.2744 -0.9616 -0.0105
vn 0.0002 -0.9466 0.3224
vn 0.1784 -0.9838 -0.0156
vn 0.0045 -0.4572 0.8894
vn -0.0014 0.9205 0.3906
vn 0.0036 0.9547 0.2977
vn -0.9983 0.0526 -0.0232
vn -0.2680 0.9634 -0.0033
vn -0.0065 -0.0513 -0.9987
vn 0.0201 -0.0834 -0.9963
vn 0.0295 -0.2177 -0.9756
vn 0.2558 0.9664 -0.0239
vn 0.7719 0.6350 -0.0324
vn 0.0145 0.1169 -0.9930
vn -0.2660 -0.9639 -0.0118
vn 0.0019 0.1503 -0.9886
vn -0.0095 0.6639 -0.7477
vn 0.0006 0.6883 -0.7254
vn 0.0105 0.6999 -0.7142
vn 0.0110 0.1226 -0.9924
vn 0.0220 -0.6868 -0.7265
vn 0.0172 -0.9493 -0.3139
vn 0.0222 -0.1127 -0.9934
vn 0.0007 0.9511 -0.3089
vn -0.0058 0.9404 -0.3401
vn -0.0058 0.9372 -0.3487
vn 0.0016 0.2295 0.9733
vn 0.0025 0.2149 0.9766
vn 0.0144 0.2064 0.9784
vn 0.0028 -0.4782 0.8782
vn 0.0139 -0.5059 0.8625
vn -0.0030 -0.9668 0.2556
vn 0.0010 -0.9586 0.2846
vn 0.0006 0.9199 0.3923
vn 0.3124 0.9499 -0.0024
vn 0.1951 0.9808 -0.0045
vn 0.0006 0.9311 -0.3647
vn 0.0010 0.9441 0.3296
vn -0.0152 0.9114 -0.4111
vn 0.6785 -0.0349 0.7338
vn 0.0196 0.0022 0.9998
vn 0.0700 -0.9901 0.1217
vn -0.0025 0.9753 0.2207
usemtl None
s 1
f 239/1/1 238/2/2 1/3/3 240/4/4
f 235/5/5 2/6/6 1/7/3
f 224/8/7 198/9/8 197/10/9 223/11/10
f 3/12/11 194/13/12 219/14/13 220/15/14
f 233/16/15 231/17/16 230/18/17
f 98/19/18 54/20/19 95/21/20 97/22/21
f 51/23/22 33/24/23 50/25/24 86/26/25
f 229/27/26 18/28/27 17/29/28
f 11/30/29 12/31/30 116/32/31
f 70/33/32 69/34/33 11/30/29 116/32/31
f 232/35/34 16/36/35 231/17/16 206/37/36
f 135/38/37 14/39/38 137/40/39
f 44/41/40 45/42/41 19/43/42 22/44/43
f 24/45/44 25/46/45 23/47/46
f 75/48/47 46/49/48 74/50/49
f 66/51/50 42/52/51 21/53/52 41/54/53
f 24/45/44 23/47/46 20/55/54
f 25/46/45 26/56/55 40/57/56
f 29/58/57 7/59/58 6/60/59
f 156/61/60 155/62/61 154/63/62 192/64/63
f 113/65/64 11/66/29 69/67/33 68/68/65
f 37/69/66 29/58/57 6/60/59
f 57/70/67 55/71/68 54/20/19 98/19/18
f 9/72/69 51/23/22 86/26/25 87/73/70
f 37/69/66 36/74/71 54/20/19 55/71/68
f 52/75/72 51/76/22 9/77/69 8/78/73
f 56/79/74 38/80/75 55/71/68
f 62/81/76 60/82/77 61/83/78
f 153/84/79 152/85/80 151/86/81 190/87/82
f 29/58/57 37/69/66 38/80/75
f 100/88/83 99/89/84 132/90/85 102/91/86
f 75/48/47 74/50/49 76/92/87
f 78/93/88 123/94/89 80/95/90
f 53/96/91 36/74/71 35/97/92 34/98/93
f 72/99/94 73/100/95 44/41/40 71/101/96
f 49/102/97 31/103/98 30/104/99 48/105/100
f 68/68/65 69/67/33 43/106/101 42/52/51
f 24/45/44 26/56/55 25/46/45
f 128/107/102 87/73/70 127/108/103
f 82/109/104 83/110/105 84/111/106 49/102/97
f 119/112/107 118/113/108 154/63/62 155/62/61
f 78/93/88 80/95/90 79/114/109
f 41/54/53 21/53/52 23/47/46 25/46/45
f 20/115/54 45/42/41 46/49/48
f 71/101/96 44/41/40 22/44/43 43/116/101
f 7/59/58 28/117/110 5/118/111
f 95/21/20 54/20/19 36/74/71 53/96/91
f 130/119/112 96/120/113 94/121/114 93/122/115
f 52/75/72 34/98/93 33/123/23 51/76/22
f 92/124/116 53/96/91 34/98/93 52/75/72
f 60/82/77 59/125/117 61/83/78
f 128/107/102 88/126/118 87/73/70
f 142/127/119 110/128/120 63/129/121 109/130/122
f 99/89/84 100/88/83 98/19/18 97/22/21
f 57/70/67 98/19/18 100/88/83 101/131/123
f 57/70/67 56/79/74 55/71/68
f 62/81/76 39/132/124 60/82/77
f 32/133/125 31/103/98 50/25/24 33/24/23
f 65/134/126 66/51/50 41/54/53 64/135/127
f 57/70/67 58/136/128 56/79/74
f 116/32/31 115/137/129 150/138/130
f 41/54/53 25/46/45 40/57/56 64/135/127
f 109/130/122 63/129/121 62/81/76 61/83/78
f 69/34/33 70/33/32 71/101/96 43/116/101
f 63/129/121 64/135/127 40/57/56 62/81/76
f 65/134/126 64/135/127 63/129/121 110/128/120
f 169/139/131 126/140/132 83/110/105 125/141/133
f 144/142/134 111/143/135 65/134/126 110/128/120
f 67/144/136 68/68/65 42/52/51 66/51/50
f 146/145/137 112/146/138 67/144/136 111/143/135
f 184/147/139 137/40/39 14/39/38 183/148/140
f 216/149/141 236/150/142 218/151/143 217/152/144
f 167/153/145 125/141/133 124/154/146 166/155/147
f 152/85/80 118/113/108 72/99/94 117/156/148
f 30/104/99 27/157/149 48/105/100
f 194/13/12 159/158/150 193/159/151 219/14/13
f 85/160/152 86/26/25 50/25/24 84/111/106
f 77/161/153 75/48/47 76/92/87
f 81/162/154 47/163/155 79/114/109
f 84/111/106 50/25/24 31/103/98 49/102/97
f 48/105/100 81/162/154 82/109/104 49/102/97
f 48/105/100 27/157/149 47/163/155
f 84/111/106 83/110/105 126/140/132 85/160/152
f 176/164/156 177/165/157 175/166/158
f 8/78/73 89/167/159 90/168/160
f 124/154/146 82/109/104 81/162/154 80/95/90
f 48/105/100 47/163/155 81/162/154
f 85/160/152 126/140/132 171/169/161 127/108/103
f 94/121/114 95/21/20 53/96/91 92/124/116
f 127/108/103 87/73/70 86/26/25 85/160/152
f 175/166/158 131/170/162 96/120/113 130/119/112
f 88/126/118 10/171/163 9/72/69
f 55/71/68 38/80/75 37/69/66
f 232/35/34 204/172/164 181/173/165 203/174/166
f 182/175/167 183/148/140 14/39/38 13/176/168
f 87/73/70 88/126/118 9/72/69
f 89/167/159 91/177/169 90/168/160
f 91/177/169 93/122/115 90/168/160
f 201/178/170 202/179/171 177/165/157
f 99/89/84 97/22/21 96/120/113 131/170/162
f 95/21/20 94/121/114 96/120/113 97/22/21
f 103/180/172 101/131/123 100/88/83 102/91/86
f 93/122/115 129/181/173 130/119/112
f 105/182/174 103/180/172 106/183/175
f 178/184/176 132/90/85 99/89/84 131/170/162
f 58/136/128 57/70/67 101/131/123
f 180/185/177 133/186/178 102/91/86 132/90/85
f 108/187/179 59/125/117 107/188/180
f 58/136/128 101/131/123 104/189/181
f 59/125/117 108/187/179 61/83/78
f 103/180/172 105/182/174 104/189/181
f 104/189/181 101/131/123 103/180/172
f 111/143/135 144/142/134 145/190/182 146/145/137
f 140/191/183 109/130/122 61/83/78 108/187/179
f 151/86/81 149/192/184 189/193/185
f 152/85/80 117/156/148 150/138/130 151/86/81
f 112/146/138 114/194/186 113/65/64
f 14/39/38 15/195/187 13/176/168
f 153/84/79 154/63/62 118/113/108 152/85/80
f 73/100/95 74/50/49 45/42/41 44/41/40
f 213/196/188 191/197/189 153/84/79 190/87/82
f 114/194/186 12/198/30 113/65/64
f 182/199/167 13/200/168 106/183/175 133/186/178
f 225/201/190 227/202/191 226/203/192
f 169/139/131 168/204/193 199/205/194 170/206/195
f 77/161/153 76/92/87 120/207/196
f 121/208/197 157/209/198 158/210/199
f 120/207/196 121/208/197 77/161/153
f 123/94/89 78/93/88 122/211/200
f 92/124/116 90/168/160 93/122/115 94/121/114
f 160/212/201 158/210/199 159/158/150
f 123/94/89 122/211/200 164/213/202
f 200/214/203 170/206/195 199/205/194
f 170/206/195 171/169/161 126/140/132 169/139/131
f 125/141/133 83/110/105 82/109/104 124/154/146
f 173/215/204 128/107/102 127/108/103
f 202/179/171 179/216/205 178/184/176 177/165/157
f 174/217/206 176/164/156 175/166/158
f 129/181/173 174/217/206 130/119/112
f 10/218/163 89/167/159 8/78/73
f 205/219/207 185/220/208 139/221/209 184/147/139
f 181/222/165 182/199/167 133/186/178 180/185/177
f 213/196/188 214/223/210 215/224/211
f 143/225/212 144/142/134 110/128/120 142/127/119
f 13/200/168 134/226/213 106/183/175
f 204/172/164 183/148/140 182/175/167 181/173/165
f 207/227/214 206/37/36 231/17/16 208/228/215
f 209/229/216 187/230/217 143/225/212 186/231/218
f 134/226/213 105/182/174 106/183/175
f 138/232/219 136/233/220 137/40/39
f 112/146/138 113/65/64 68/68/65 67/144/136
f 141/234/221 142/127/119 109/130/122 140/191/183
f 138/232/219 107/188/180 136/233/220
f 135/38/37 137/40/39 136/233/220
f 145/190/182 144/142/134 143/225/212 187/230/217
f 188/235/222 147/236/223 145/190/182
f 139/221/209 140/191/183 108/187/179 138/232/219
f 140/191/183 139/221/209 185/220/208 141/234/221
f 141/234/221 185/220/208 207/227/214 186/231/218
f 67/144/136 66/51/50 65/134/126 111/143/135
f 187/230/217 188/235/222 145/190/182
f 148/237/224 146/145/137 147/236/223
f 148/237/224 114/194/186 112/146/138
f 148/237/224 112/146/138 146/145/137
f 73/100/95 72/99/94 118/113/108 119/112/107
f 150/138/130 115/137/129 149/192/184
f 223/11/10 197/10/9 165/238/225 196/239/226
f 116/32/31 150/138/130 117/156/148 70/33/32
f 121/208/197 120/207/196 157/209/198
f 151/86/81 189/193/185 190/87/82
f 156/61/60 157/209/198 120/207/196 155/62/61
f 192/64/63 191/197/189 216/149/141 217/152/144
f 120/207/196 76/92/87 119/112/107 155/62/61
f 81/162/154 79/114/109 80/95/90
f 221/240/227 196/239/226 163/241/228 195/242/229
f 197/10/9 198/9/8 168/204/193 167/153/145
f 159/158/150 158/210/199 157/209/198
f 161/243/230 163/241/228 162/244/231
f 173/215/204 127/108/103 171/169/161
f 164/213/202 122/211/200 162/244/231
f 229/27/26 17/29/28 202/179/171
f 166/155/147 124/154/146 80/95/90 123/94/89
f 123/94/89 164/213/202 165/238/225 166/155/147
f 196/239/226 165/238/225 164/213/202 163/241/228
f 130/119/112 174/217/206 175/166/158
f 169/139/131 125/141/133 167/153/145 168/204/193
f 178/184/176 131/170/162 175/166/158 177/165/157
f 206/37/36 205/219/207 204/172/164 232/35/34
f 203/245/166 181/222/165 180/185/177 179/216/205
f 172/246/232 173/215/204 171/169/161
f 91/177/169 129/181/173 93/122/115
f 132/90/85 178/184/176 179/216/205 180/185/177
f 108/187/179 107/188/180 138/232/219
f 133/186/178 106/183/175 103/180/172 102/91/86
f 205/219/207 184/147/139 183/148/140 204/172/164
f 179/216/205 202/179/171 17/29/28 203/245/166
f 208/228/215 209/229/216 186/231/218 207/227/214
f 13/176/168 15/195/187 134/247/213
f 184/147/139 139/221/209 138/232/219 137/40/39
f 206/37/36 207/227/214 185/220/208 205/219/207
f 45/42/41 20/115/54 19/43/42
f 17/248/28 18/249/27 16/36/35
f 27/157/149 30/104/99 28/250/110
f 235/5/5 236/150/142 216/149/141 215/224/211
f 135/38/37 15/195/187 14/39/38
f 17/248/28 16/36/35 232/35/34 203/174/166
f 150/138/130 149/192/184 151/86/81
f 214/223/210 213/196/188 212/251/233
f 186/231/218 143/225/212 142/127/119 141/234/221
f 147/236/223 146/145/137 145/190/182
f 234/252/234 235/5/5 215/224/211
f 189/193/185 212/251/233 190/87/82
f 211/253/235 188/235/222 187/230/217
f 197/10/9 167/153/145 166/155/147 165/238/225
f 164/213/202 162/244/231 163/241/228
f 226/203/192 199/205/194 168/204/193 198/9/8
f 9/77/69 10/218/163 8/78/73
f 32/254/125 35/97/92 6/60/59 5/118/111
f 36/74/71 37/69/66 6/60/59 35/97/92
f 228/255/236 199/205/194 226/203/192
f 225/201/190 226/203/192 198/9/8 224/8/7
f 176/164/156 201/178/170 177/165/157
f 229/27/26 202/179/171 201/178/170
f 200/214/203 172/246/232 170/206/195
f 228/255/236 200/214/203 199/205/194
f 23/47/46 21/53/52 22/256/43 19/257/42
f 74/50/49 46/49/48 45/42/41
f 233/16/15 208/228/215 231/17/16
f 211/253/235 187/230/217 209/229/216
f 211/253/235 209/229/216 210/258/237
f 215/224/211 214/223/210 234/252/234
f 215/224/211 216/149/141 191/197/189 213/196/188
f 154/63/62 153/84/79 191/197/189 192/64/63
f 193/159/151 159/158/150 157/209/198 156/61/60
f 160/212/201 159/158/150 194/13/12
f 192/64/63 217/152/144 193/159/151 156/61/60
f 218/151/143 219/14/13 193/159/151 217/152/144
f 219/14/13 218/151/143 237/259/238 220/15/14
f 222/260/239 223/11/10 196/239/226 221/240/227
f 35/97/92 32/254/125 33/123/23 34/98/93
f 161/243/230 195/242/229 163/241/228
f 194/13/12 4/261/240 160/212/201
f 6/60/59 7/59/58 5/118/111
f 239/1/1 224/8/7 223/11/10 222/260/239
f 172/246/232 171/169/161 170/206/195
f 240/4/4 2/262/6 241/263/241
f 2/6/6 235/5/5 234/252/234
f 228/255/236 226/203/192 227/202/191
f 210/258/237 209/229/216 208/228/215
f 28/250/110 30/104/99 5/264/111
f 18/249/27 230/18/17 16/36/35
f 3/265/11 220/266/14 221/240/227 195/242/229
f 238/2/2 239/1/1 222/260/239 237/267/238
f 195/242/229 161/243/230 4/268/240
f 227/202/191 225/201/190 241/263/241
f 236/150/142 235/5/5 1/7/3 238/269/2
f 19/257/42 20/55/54 23/47/46
f 3/12/11 4/261/240 194/13/12
f 236/150/142 238/269/2 237/259/238 218/151/143
f 113/65/64 12/198/30 11/66/29
f 4/268/240 3/265/11 195/242/229
f 220/266/14 237/267/238 222/260/239 221/240/227
f 210/258/237 208/228/215 233/16/15
f 52/75/72 8/78/73 90/168/160 92/124/116
f 240/4/4 241/263/241 225/201/190
f 30/104/99 31/103/98 32/133/125 5/264/111
f 16/36/35 230/18/17 231/17/16
f 240/4/4 225/201/190 224/8/7 239/1/1
f 22/256/43 21/53/52 42/52/51 43/106/101
f 73/100/95 119/112/107 76/92/87 74/50/49
f 190/87/82 212/251/233 213/196/188
f 40/57/56 39/132/124 62/81/76
f 116/32/31 12/31/30 115/137/129
f 71/101/96 70/33/32 117/156/148 72/99/94
f 40/57/56 26/56/55 39/132/124
f 1/3/3 2/262/6 240/4/4
o Cube.002
v -1.003436 -0.612959 -4.069567
v -1.003436 0.646226 -4.069567
v 5.998145 -0.612959 -4.069567
v 5.998145 0.646226 -4.069567
v -1.003436 -0.612959 0.804633
v -1.003436 -0.403171 1.014421
v -1.003436 -0.551513 0.952976
v -1.003436 0.436439 1.014421
v -1.003436 0.646226 0.804633
v -1.003436 0.584781 0.952976
v 5.998145 -0.403171 1.014421
v 5.998145 -0.612959 0.804633
v 5.998145 -0.551513 0.952976
v 5.998145 0.646226 0.804633
v 5.998145 0.436439 1.014421
v 5.998145 0.584781 0.952976
v -1.003436 0.508509 -4.113380
v -1.003436 -0.475241 -4.113380
v 5.998144 -0.475241 -4.113380
v 5.998144 0.508509 -4.113380
v -1.003436 -0.427236 0.775151
v -1.003436 -0.475241 0.647460
v 5.998144 -0.475241 0.647460
v 5.998144 -0.427236 0.775151
v -1.003436 -0.311343 0.828042
v 5.998144 -0.311343 0.828042
v 5.998144 0.460504 0.775151
v 5.998144 0.508509 0.647460
v -1.003436 0.508509 0.647460
v -1.003436 0.460504 0.775151
v 5.998144 0.344610 0.828042
v -1.003436 0.344610 0.828042
vt 0.953091 0.064022
vt 0.953091 0.260529
vt 0.664096 0.260529
vt 0.664096 0.064022
vt 0.652693 0.500627
vt 0.652693 0.296580
vt 0.952776 0.296580
vt 0.952776 0.500627
vt 0.587486 0.859035
vt 0.587486 0.929463
vt 0.000182 0.929465
vt 0.000182 0.859037
vt 0.012625 0.999818
vt 0.000182 0.994664
vt 0.015098 0.984239
vt 0.025810 0.988266
vt 0.587490 0.422511
vt 0.000182 0.422511
vt 0.000182 0.013652
vt 0.587490 0.013652
vt 0.437951 0.999818
vt 0.425507 0.994664
vt 0.440424 0.984239
vt 0.451136 0.988266
vt 0.421469 0.999818
vt 0.425144 0.988266
vt 0.000182 0.831733
vt 0.587490 0.831734
vt 0.587490 0.845202
vt 0.000182 0.845204
vt 0.000182 0.845567
vt 0.587486 0.845567
vt 0.000182 0.000183
vt 0.587490 0.000182
vt 0.587486 0.942933
vt 0.000182 0.942933
vt 0.000182 0.422874
vt 0.587490 0.422874
vt 0.437925 0.968272
vt 0.846756 0.972285
vt 0.850318 0.983873
vt 0.450996 0.979954
vt 0.670726 0.020252
vt 0.600297 0.020252
vt 0.608000 0.004618
vt 0.663023 0.004618
vt 0.000182 0.973304
vt 0.012676 0.968272
vt 0.025746 0.979954
vt 0.014996 0.983875
vt 0.425431 0.973304
vt 0.440246 0.983875
vt 0.421507 0.972288
vt 0.425068 0.983875
vt 0.587854 0.103487
vt 0.587854 0.033059
vt 0.603488 0.040762
vt 0.603488 0.095785
vt 0.593008 0.115931
vt 0.607924 0.105506
vt 0.683169 0.015098
vt 0.672744 0.000182
vt 0.846794 0.999818
vt 0.850470 0.988266
vt 0.587466 0.955421
vt 0.000182 0.955419
vt 0.000182 0.943297
vt 0.587466 0.943297
vt 0.587854 0.015098
vt 0.598278 0.000182
vt 0.593008 0.020616
vt 0.607924 0.031040
vt 0.000182 0.955785
vt 0.587465 0.955785
vt 0.587465 0.967907
vt 0.000182 0.967909
vn 0.0000 -1.0000 0.0000
vn 0.0000 1.0000 0.0000
vn 0.0000 -0.1951 0.9808
vn -0.0000 0.1951 0.9808
vn -1.0000 0.0000 0.0000
vn 0.0000 0.9808 0.1951
vn 1.0000 -0.0000 -0.0000
vn 0.0000 -0.9808 0.1951
vn 0.0000 -0.7071 0.7071
vn -0.0000 0.7071 0.7071
vn 0.0000 -0.3032 -0.9529
vn 0.0000 0.3032 -0.9529
usemtl None_Bookmap_AlbedoTransparency.png
s off
f 260/270/242 264/271/242 263/272/242 259/273/242
f 258/274/243 270/275/243 269/276/243 261/277/243
s 1
f 252/278/244 256/279/245 249/280/245 247/281/244
f 246/282/246 248/283/246 262/284/246 263/285/246
f 245/286/243 243/287/243 250/288/247 255/289/247
f 255/290/248 257/291/248 268/292/248 269/293/248
f 242/294/246 246/282/246 263/285/246 259/295/246
f 246/296/249 253/297/249 254/298/250 248/299/250
f 248/300/250 254/301/250 252/278/244 247/281/244
f 255/289/247 250/288/247 251/302/251 257/303/251
f 257/304/251 251/305/251 249/280/245 256/279/245
f 242/306/242 244/307/242 253/297/249 246/296/249
f 253/308/248 244/309/248 260/310/248 264/311/248
f 247/312/246 249/313/246 273/314/246 266/315/246
f 251/316/246 250/317/246 270/318/246 271/319/246
f 254/320/248 253/308/248 264/311/248 265/321/248
f 250/317/246 243/322/246 258/323/246 270/318/246
f 256/324/248 252/325/248 267/326/248 272/327/248
f 257/328/248 256/324/248 272/327/248 268/329/248
f 248/330/246 247/312/246 266/315/246 262/331/246
f 245/332/248 255/290/248 269/293/248 261/333/248
f 244/334/252 242/335/252 259/336/252 260/337/252
f 249/313/246 251/338/246 271/339/246 273/314/246
f 252/325/248 254/340/248 265/341/248 267/326/248
f 243/342/253 245/343/253 261/344/253 258/345/253
