%YAML 1.1
%TAG !u! tag:unity3d.com,2011:
--- !u!114 &11400000
MonoBehaviour:
  m_ObjectHideFlags: 0
  m_PrefabParentObject: {fileID: 0}
  m_PrefabInternal: {fileID: 0}
  m_GameObject: {fileID: 0}
  m_Enabled: 1
  m_EditorHideFlags: 0
  m_Script: {fileID: 11500000, guid: 881c6cb7cbf8fe849aaa23c85ec34af0, type: 3}
  m_Name: CH1_Hint1
  m_EditorClassIdentifier: 
  text: Looks like the first page symbol is similar to the card we have.
  timeBeforeSpawn: 20
