# Blender v2.79 (sub 0) OBJ File: 'Parts_Procession_Scene.blend'
# www.blender.org
mtllib Barre2.mtl
o Cube.019_Cube.001
v -2.722899 0.000000 2.803102
v -2.722899 0.000000 -2.803102
v 2.722899 0.000000 2.803102
v 2.722899 0.000000 -2.803102
v -1.848188 18.849417 -1.902627
v 1.848188 18.916044 -1.902627
v 1.848188 19.102724 1.902627
v -1.848188 19.005188 1.902627
v 1.848188 1.106256 -1.902627
v 1.848188 1.142717 1.902627
v -1.848188 1.224375 1.902627
v -1.848188 1.067432 -1.902627
v -2.587464 40.000000 2.663677
v -2.587464 40.000000 -2.663676
v 2.587462 40.000000 2.663678
v 2.587462 40.000000 -2.663676
v -1.848189 38.849419 -1.902626
v 1.848187 38.916046 -1.902625
v 1.848187 39.102722 1.902628
v -1.848189 39.005188 1.902627
v 1.848187 21.106256 -1.902625
v 1.848187 21.142717 1.902628
v -1.848189 21.224375 1.902627
v -1.848189 21.067432 -1.902626
v -2.243462 19.492458 2.309544
v -2.311080 20.522074 2.379153
v -2.267334 20.513018 -2.334117
v -2.291715 19.481783 -2.359217
v 2.289530 20.517769 2.356970
v 2.206929 19.501600 2.271936
v 2.279080 20.515572 -2.346211
v 2.272414 19.485867 -2.339348
v -22.722898 40.000000 2.803103
v -22.722898 40.000000 -2.803102
v -17.277102 40.000000 2.803103
v -17.277102 40.000000 -2.803102
v -18.151812 41.106255 -1.902625
v -18.151812 41.142715 1.902628
v -21.848186 41.224377 1.902628
v -21.848186 41.067432 -1.902625
v -21.848186 44.537426 1.902628
v -18.151812 44.537426 -1.902625
v -18.151812 44.537426 1.902628
v -21.848186 44.537426 -1.902625
v -12.631071 50.263824 -1.902625
v -14.875630 49.275425 -1.902625
v -16.619835 47.988441 -1.902625
v -17.749844 46.352211 -1.902625
v -17.749844 46.352211 1.902628
v -16.619835 47.988441 1.902627
v -14.875630 49.275425 1.902627
v -12.631071 50.263821 1.902627
v -21.263950 47.193237 1.902628
v -19.621550 49.908104 1.902627
v -17.086447 52.134689 1.902626
v -13.824109 53.686172 1.902627
v -21.263950 47.193237 -1.902625
v -19.621550 49.908104 -1.902627
v -17.086447 52.134689 -1.902627
v -13.824110 53.686176 -1.902627
v 2.722898 40.000000 2.803103
v 2.722898 40.000000 -2.803102
v -2.722900 40.000000 2.803103
v -2.722900 40.000000 -2.803102
v -1.848189 41.106255 -1.902625
v -1.848189 41.142715 1.902628
v 1.848187 41.224377 1.902628
v 1.848187 41.067432 -1.902625
v 1.848187 44.537426 1.902628
v -1.848189 44.537426 -1.902625
v -1.848189 44.537426 1.902628
v 1.848187 44.537426 -1.902625
v -10.000000 50.643196 1.902628
v -10.000000 54.339569 -1.902625
v -10.000000 54.339569 1.902628
v -10.000000 50.643196 -1.902625
v -7.368929 50.263824 -1.902625
v -5.124370 49.275425 -1.902625
v -3.380164 47.988441 -1.902625
v -2.250157 46.352211 -1.902625
v -2.250157 46.352211 1.902628
v -3.380164 47.988441 1.902627
v -5.124370 49.275425 1.902627
v -7.368929 50.263821 1.902627
v 1.263950 47.193237 1.902628
v -0.378452 49.908104 1.902627
v -2.913554 52.134689 1.902626
v -6.175891 53.686172 1.902627
v 1.263950 47.193237 -1.902625
v -0.378451 49.908104 -1.902627
v -2.913552 52.134689 -1.902627
v -6.175890 53.686176 -1.902627
v -22.722898 0.000000 2.803102
v -22.722898 0.000000 -2.803102
v -17.277100 0.000000 2.803102
v -17.277100 0.000000 -2.803102
v -21.848186 18.849417 -1.902627
v -18.151812 18.916044 -1.902627
v -18.151812 19.102724 1.902627
v -21.848186 19.005188 1.902627
v -18.151812 1.106256 -1.902627
v -18.151812 1.142717 1.902627
v -21.848186 1.224375 1.902627
v -21.848186 1.067432 -1.902627
v -22.587463 40.000000 2.663677
v -22.587463 40.000000 -2.663676
v -17.412537 40.000000 2.663678
v -17.412537 40.000000 -2.663675
v -21.848188 38.849419 -1.902626
v -18.151812 38.916046 -1.902625
v -18.151812 39.102722 1.902627
v -21.848188 39.005188 1.902627
v -18.151812 21.106256 -1.902625
v -18.151812 21.142717 1.902627
v -21.848188 21.224375 1.902627
v -21.848188 21.067432 -1.902626
v -22.243460 19.492458 2.309544
v -22.311077 20.522074 2.379152
v -22.267332 20.513018 -2.334117
v -22.291714 19.481783 -2.359217
v -17.710468 20.517769 2.356970
v -17.793068 19.501600 2.271935
v -17.720919 20.515572 -2.346211
v -17.727585 19.485867 -2.339348
vt 1.049297 0.466116
vt 0.982022 0.426782
vt 0.990646 0.257901
vt 1.049297 0.216791
vt 1.055719 0.467211
vt 0.996353 0.427524
vt 0.994193 0.256586
vt 1.055719 0.214849
vt 1.064840 0.473567
vt 1.002717 0.431829
vt 1.000670 0.259231
vt 1.064840 0.218754
vt 1.066088 0.472709
vt 1.002618 0.431248
vt 0.998083 0.260536
vt 1.066088 0.220681
vt 1.027187 0.448137
vt 0.996353 0.427524
vt 0.994193 0.256586
vt 1.027045 0.234300
vt 1.037329 0.453923
vt 1.002618 0.431248
vt 0.998083 0.260536
vt 1.037090 0.237675
vt 1.035888 0.454115
vt 1.002717 0.431829
vt 1.000670 0.259231
vt 1.035764 0.237094
vt 0.005074 0.431251
vt 0.010492 0.260536
vt 0.002591 0.431828
vt -0.007893 0.259228
vt 0.005030 0.426783
vt 0.013589 0.257901
vt 0.007396 0.427523
vt 0.003691 0.256585
vt -0.017346 0.444640
vt -0.016865 0.246355
vt -0.027527 0.443368
vt -0.027765 0.240646
vt -0.029095 0.447766
vt -0.030027 0.246157
vt 1.020611 0.449344
vt 0.982022 0.426782
vt 0.990646 0.257901
vt 1.021109 0.236549
vt 0.010492 0.260536
vt 0.005074 0.431251
vt -0.045359 0.461370
vt -0.045359 0.231584
vt 0.013589 0.257901
vt 0.005030 0.426783
vt -0.049798 0.455356
vt -0.049798 0.228037
vt 0.003691 0.256585
vt 0.007396 0.427523
vt -0.056146 0.456353
vt -0.056146 0.226265
vt -0.007893 0.259228
vt 0.002591 0.431828
vt -0.057683 0.462147
vt -0.057683 0.229823
vt 1.049297 0.233856
vt 1.049297 0.446785
vt 1.055719 0.233039
vt 1.055719 0.449938
vt 1.064840 0.240263
vt 1.064840 0.455200
vt 1.066088 0.240221
vt 1.066088 0.451435
vt -0.021825 0.440778
vt -0.021249 0.241488
vt 1.049297 0.466116
vt 0.982022 0.426782
vt 0.990646 0.257901
vt 1.049297 0.216791
vt 1.055719 0.467211
vt 0.996353 0.427524
vt 0.994193 0.256586
vt 1.055719 0.214849
vt 1.064840 0.473567
vt 1.002717 0.431829
vt 1.000670 0.259231
vt 1.064840 0.218754
vt 1.066088 0.472709
vt 1.002618 0.431248
vt 0.998083 0.260536
vt 1.066088 0.220681
vt 0.501874 0.427524
vt 0.498942 0.256585
vt 0.493526 0.426782
vt 0.502118 0.257901
vt 0.502654 0.431829
vt 0.496389 0.259230
vt -0.260377 0.412651
vt -0.260377 0.248818
vt 0.097094 0.248818
vt 0.097094 0.412651
vt 0.497642 0.293750
vt 0.000000 0.000000
vt 0.000000 0.000000
vt 0.496389 0.259230
vt 1.071147 0.412651
vt 1.071147 0.248818
vt 1.212600 0.248818
vt 1.212600 0.412651
vt 0.500399 0.291677
vt 0.504287 0.260536
vt 0.504287 0.260536
vt 0.502118 0.257901
vt 0.499528 0.290773
vt 0.100423 0.051580
vt 0.000000 0.000000
vt 0.498942 0.256585
vt 0.498895 0.328269
vt 0.000000 0.000000
vt 0.500148 0.362789
vt 0.000000 0.000000
vt 0.000000 0.000000
vt 0.501401 0.397309
vt 0.000000 0.000000
vt 0.502654 0.431829
vt 0.862071 0.412651
vt 0.862071 0.248818
vt 0.617538 0.412651
vt 0.617538 0.248818
vt 0.348544 0.248818
vt 0.348544 0.412651
vt 0.498681 0.325454
vt 0.504287 0.260536
vt 0.496963 0.359230
vt 0.504287 0.260536
vt 0.504287 0.260536
vt 0.495245 0.393006
vt 0.504287 0.260536
vt 0.493526 0.426782
vt 0.500115 0.324961
vt 0.200847 0.103160
vt 0.500701 0.359148
vt 0.301271 0.154741
vt 0.401694 0.206321
vt 0.501288 0.393336
vt 0.501874 0.427524
vt 1.049297 0.466116
vt 1.049297 0.216791
vt 0.990646 0.257901
vt 0.982022 0.426782
vt 1.055719 0.467211
vt 1.055719 0.214849
vt 0.994193 0.256586
vt 0.996353 0.427524
vt 1.064840 0.473567
vt 1.064840 0.218754
vt 1.000670 0.259231
vt 1.002717 0.431829
vt 1.066088 0.472709
vt 1.066088 0.220681
vt 0.998083 0.260536
vt 1.002618 0.431248
vt 0.498942 0.256585
vt 0.501874 0.427524
vt 0.502118 0.257901
vt 0.493526 0.426782
vt 0.496389 0.259230
vt 0.502654 0.431829
vt -0.260377 0.412651
vt 0.097094 0.412651
vt 0.097094 0.248818
vt -0.260377 0.248818
vt 0.497642 0.293750
vt 0.000000 0.000000
vt 1.071147 0.412651
vt 1.071147 0.248818
vt 0.500399 0.291677
vt 0.504287 0.260536
vt 0.499528 0.290773
vt 0.100423 0.051580
vt 0.498895 0.328269
vt 0.000000 0.000000
vt 0.500148 0.362789
vt 0.000000 0.000000
vt 0.000000 0.000000
vt 0.501401 0.397309
vt 0.000000 0.000000
vt 0.502654 0.431829
vt 0.862071 0.412651
vt 0.862071 0.248818
vt 0.617538 0.412651
vt 0.617538 0.248818
vt 0.348544 0.248818
vt 0.348544 0.412651
vt 0.498681 0.325454
vt 0.504287 0.260536
vt 0.496963 0.359230
vt 0.504287 0.260536
vt 0.504287 0.260536
vt 0.495245 0.393006
vt 0.504287 0.260536
vt 0.493526 0.426782
vt 0.500115 0.324961
vt 0.200847 0.103160
vt 0.500701 0.359148
vt 0.301271 0.154741
vt 0.401694 0.206321
vt 0.501288 0.393336
vt 0.501874 0.427524
vt 1.049297 0.466116
vt 0.982022 0.426782
vt 0.990646 0.257901
vt 1.049297 0.216791
vt 1.055719 0.467211
vt 0.996353 0.427524
vt 0.994193 0.256586
vt 1.055719 0.214849
vt 1.064840 0.473567
vt 1.002717 0.431829
vt 1.000670 0.259231
vt 1.064840 0.218754
vt 1.066088 0.472709
vt 1.002618 0.431248
vt 0.998083 0.260536
vt 1.066088 0.220681
vt 1.027187 0.448137
vt 0.996353 0.427524
vt 0.994193 0.256586
vt 1.027045 0.234300
vt 1.037329 0.453923
vt 1.002618 0.431248
vt 0.998083 0.260536
vt 1.037090 0.237675
vt 1.035888 0.454115
vt 1.002717 0.431829
vt 1.000670 0.259231
vt 1.035764 0.237094
vt 0.005074 0.431251
vt 0.010492 0.260536
vt 0.002591 0.431828
vt -0.007893 0.259228
vt 0.005030 0.426783
vt 0.013589 0.257901
vt 0.007396 0.427523
vt 0.003691 0.256585
vt -0.017346 0.444640
vt -0.016865 0.246355
vt -0.027527 0.443368
vt -0.027765 0.240646
vt -0.029095 0.447766
vt -0.030027 0.246157
vt 1.020611 0.449344
vt 0.982022 0.426782
vt 0.990646 0.257901
vt 1.021109 0.236549
vt 0.010492 0.260536
vt 0.005074 0.431251
vt -0.045359 0.461370
vt -0.045359 0.231584
vt 0.013589 0.257901
vt 0.005030 0.426783
vt -0.049798 0.455356
vt -0.049798 0.228037
vt 0.003691 0.256585
vt 0.007396 0.427523
vt -0.056146 0.456353
vt -0.056146 0.226265
vt -0.007893 0.259228
vt 0.002591 0.431828
vt -0.057683 0.462147
vt -0.057683 0.229823
vt 1.049297 0.233856
vt 1.049297 0.446785
vt 1.055719 0.233039
vt 1.055719 0.449938
vt 1.064840 0.240263
vt 1.064840 0.455200
vt 1.066088 0.240221
vt 1.066088 0.451435
vt -0.021825 0.440778
vt -0.021249 0.241488
vn -0.7948 0.6067 -0.0101
vn -0.0027 0.6380 -0.7700
vn 0.7893 0.6140 -0.0024
vn 0.0054 0.6055 0.7958
vn -0.0042 0.6072 -0.7946
vn 0.0081 0.5741 0.8187
vn 0.8125 0.5829 -0.0036
vn 0.0000 0.0000 1.0000
vn 1.0000 0.0000 0.0000
vn -1.0000 0.0000 0.0000
vn 0.0000 0.0000 -1.0000
vn 0.0121 -0.6586 0.7524
vn 0.0070 -0.5963 -0.8027
vn 0.7783 -0.6276 0.0211
vn -0.8187 0.5740 -0.0154
vn 0.0069 -0.6268 0.7792
vn -0.8234 -0.5674 0.0097
vn 0.0042 -0.5630 -0.8265
vn 0.8014 -0.5980 0.0122
vn -0.9998 -0.0210 0.0005
vn 0.0008 0.0088 -1.0000
vn 0.9990 -0.0438 0.0060
vn 0.0066 -0.0754 0.9971
vn -0.8006 -0.5990 0.0163
vn 0.1427 -0.9898 0.0000
vn -0.1684 0.9857 0.0000
vn 0.4030 -0.9152 0.0000
vn 0.5937 -0.8047 0.0000
vn 0.8228 -0.5683 0.0000
vn 0.9763 -0.2163 0.0000
vn -0.4295 0.9031 0.0000
vn -0.6599 0.7513 0.0000
vn -0.8556 0.5176 0.0000
vn -0.9766 0.2148 0.0000
vn 0.7948 0.6067 -0.0101
vn 0.0027 0.6380 -0.7700
vn -0.7893 0.6140 -0.0024
vn -0.0054 0.6055 0.7958
vn -0.1427 -0.9898 -0.0000
vn 0.1684 0.9857 0.0000
vn -0.4030 -0.9152 0.0000
vn -0.5937 -0.8047 0.0000
vn -0.8228 -0.5683 0.0000
vn -0.9763 -0.2163 0.0000
vn 0.4295 0.9031 0.0000
vn 0.6599 0.7513 0.0000
vn 0.8556 0.5176 -0.0000
vn 0.9766 0.2148 0.0000
usemtl None
s off
f 1/1/1 11/2/1 12/3/1 2/4/1
f 2/5/2 12/6/2 9/7/2 4/8/2
f 4/9/3 9/10/3 10/11/3 3/12/3
f 3/13/4 10/14/4 11/15/4 1/16/4
f 27/17/5 24/18/5 21/19/5 31/20/5
f 29/21/6 22/22/6 23/23/6 26/24/6
f 31/25/7 21/26/7 22/27/7 29/28/7
f 11/15/8 10/14/8 7/29/8 8/30/8
f 10/11/9 9/10/9 6/31/9 7/32/9
f 12/3/10 11/2/10 8/33/10 5/34/10
f 9/7/11 12/6/11 5/35/11 6/36/11
f 8/30/12 7/29/12 30/37/12 25/38/12
f 6/36/13 5/35/13 28/39/13 32/40/13
f 7/32/14 6/31/14 32/41/14 30/42/14
f 26/43/15 23/44/15 24/45/15 27/46/15
f 20/47/16 19/48/16 15/49/16 13/50/16
f 17/51/17 20/52/17 13/53/17 14/54/17
f 18/55/18 17/56/18 14/57/18 16/58/18
f 19/59/19 18/60/19 16/61/19 15/62/19
f 23/23/8 22/22/8 19/48/8 20/47/8
f 22/27/9 21/26/9 18/60/9 19/59/9
f 24/45/10 23/44/10 20/52/10 17/51/10
f 21/19/11 24/18/11 17/56/11 18/55/11
f 26/43/20 27/46/20 28/63/20 25/64/20
f 27/17/21 31/20/21 32/65/21 28/66/21
f 31/25/22 29/28/22 30/67/22 32/68/22
f 29/21/23 26/24/23 25/69/23 30/70/23
f 5/34/24 8/33/24 25/71/24 28/72/24
f 33/73/1 39/74/1 40/75/1 34/76/1
f 34/77/2 40/78/2 37/79/2 36/80/2
f 36/81/3 37/82/3 38/83/3 35/84/3
f 35/85/4 38/86/4 39/87/4 33/88/4
f 37/79/11 40/78/11 44/89/11 42/90/11
f 40/75/10 39/74/10 41/91/10 44/92/10
f 38/83/9 37/82/9 42/93/9 43/94/9
f 39/95/8 38/96/8 43/97/8 41/98/8
f 52/99/25 45/100/25 76/101/25 73/102/25
f 56/103/8 52/104/8 73/105/8 75/106/8
f 60/107/26 56/108/26 75/109/26 74/110/26
f 45/111/11 60/112/11 74/113/11 76/114/11
f 51/115/27 46/116/27 45/100/27 52/99/27
f 50/117/28 47/118/28 46/116/28 51/115/28
f 48/119/29 47/118/29 50/117/29 49/120/29
f 42/121/30 48/119/30 49/120/30 43/122/30
f 55/123/8 51/124/8 52/104/8 56/103/8
f 54/125/8 50/126/8 51/124/8 55/123/8
f 49/127/8 50/126/8 54/125/8 53/128/8
f 43/97/8 49/127/8 53/128/8 41/98/8
f 59/129/31 55/130/31 56/108/31 60/107/31
f 58/131/32 54/132/32 55/130/32 59/129/32
f 53/133/33 54/132/33 58/131/33 57/134/33
f 41/135/34 53/133/34 57/134/34 44/136/34
f 46/137/11 59/138/11 60/112/11 45/111/11
f 47/139/11 58/140/11 59/138/11 46/137/11
f 57/141/11 58/140/11 47/139/11 48/142/11
f 44/92/11 57/141/11 48/142/11 42/143/11
f 61/144/35 62/145/35 68/146/35 67/147/35
f 62/148/36 64/149/36 65/150/36 68/151/36
f 64/152/37 63/153/37 66/154/37 65/155/37
f 63/156/38 61/157/38 67/158/38 66/159/38
f 65/150/11 70/160/11 72/161/11 68/151/11
f 68/146/9 72/162/9 69/163/9 67/147/9
f 66/154/10 71/164/10 70/165/10 65/155/10
f 67/166/8 69/167/8 71/168/8 66/169/8
f 84/170/39 73/102/39 76/101/39 77/171/39
f 88/172/8 75/106/8 73/105/8 84/173/8
f 92/174/40 74/110/40 75/109/40 88/175/40
f 77/176/11 76/114/11 74/113/11 92/177/11
f 83/178/41 84/170/41 77/171/41 78/179/41
f 82/180/42 83/178/42 78/179/42 79/181/42
f 80/182/43 81/183/43 82/180/43 79/181/43
f 70/184/44 71/185/44 81/183/44 80/182/44
f 87/186/8 88/172/8 84/173/8 83/187/8
f 86/188/8 87/186/8 83/187/8 82/189/8
f 81/190/8 85/191/8 86/188/8 82/189/8
f 71/168/8 69/167/8 85/191/8 81/190/8
f 91/192/45 92/174/45 88/175/45 87/193/45
f 90/194/46 91/192/46 87/193/46 86/195/46
f 85/196/47 89/197/47 90/194/47 86/195/47
f 69/198/48 72/199/48 89/197/48 85/196/48
f 78/200/11 77/176/11 92/177/11 91/201/11
f 79/202/11 78/200/11 91/201/11 90/203/11
f 89/204/11 80/205/11 79/202/11 90/203/11
f 72/162/11 70/206/11 80/205/11 89/204/11
f 93/207/1 103/208/1 104/209/1 94/210/1
f 94/211/2 104/212/2 101/213/2 96/214/2
f 96/215/3 101/216/3 102/217/3 95/218/3
f 95/219/4 102/220/4 103/221/4 93/222/4
f 119/223/5 116/224/5 113/225/5 123/226/5
f 121/227/6 114/228/6 115/229/6 118/230/6
f 123/231/7 113/232/7 114/233/7 121/234/7
f 103/221/8 102/220/8 99/235/8 100/236/8
f 102/217/9 101/216/9 98/237/9 99/238/9
f 104/209/10 103/208/10 100/239/10 97/240/10
f 101/213/11 104/212/11 97/241/11 98/242/11
f 100/236/12 99/235/12 122/243/12 117/244/12
f 98/242/13 97/241/13 120/245/13 124/246/13
f 99/238/14 98/237/14 124/247/14 122/248/14
f 118/249/15 115/250/15 116/251/15 119/252/15
f 112/253/16 111/254/16 107/255/16 105/256/16
f 109/257/17 112/258/17 105/259/17 106/260/17
f 110/261/18 109/262/18 106/263/18 108/264/18
f 111/265/19 110/266/19 108/267/19 107/268/19
f 115/229/8 114/228/8 111/254/8 112/253/8
f 114/233/9 113/232/9 110/266/9 111/265/9
f 116/251/10 115/250/10 112/258/10 109/257/10
f 113/225/11 116/224/11 109/262/11 110/261/11
f 118/249/20 119/252/20 120/269/20 117/270/20
f 119/223/21 123/226/21 124/271/21 120/272/21
f 123/231/22 121/234/22 122/273/22 124/274/22
f 121/227/23 118/230/23 117/275/23 122/276/23
f 97/240/24 100/239/24 117/277/24 120/278/24
