%YAML 1.1
%TAG !u! tag:unity3d.com,2011:
--- !u!74 &7400000
AnimationClip:
  m_ObjectHideFlags: 0
  m_PrefabParentObject: {fileID: 0}
  m_PrefabInternal: {fileID: 0}
  m_Name: SquareAnimation
  serializedVersion: 6
  m_Legacy: 0
  m_Compressed: 0
  m_UseHighQualityCurve: 1
  m_RotationCurves: []
  m_CompressedRotationCurves: []
  m_EulerCurves: []
  m_PositionCurves: []
  m_ScaleCurves: []
  m_FloatCurves: []
  m_PPtrCurves:
  - curve:
    - time: 0
      value: {fileID: 21300000, guid: 63ccc3c840fe0634b880ae4b39a7005f, type: 3}
    - time: 0.041666668
      value: {fileID: 21300000, guid: 3944509d0d494914997bf4d34df9020c, type: 3}
    - time: 0.083333336
      value: {fileID: 21300000, guid: 1efeb7c5dcc7a374ab52c1b6a0dba800, type: 3}
    - time: 0.125
      value: {fileID: 21300000, guid: 84e78fae7ee83dc46939b66ac7faf829, type: 3}
    - time: 0.16666667
      value: {fileID: 21300000, guid: 42652fb82afccfc48ac1724941415156, type: 3}
    - time: 0.20833333
      value: {fileID: 21300000, guid: 53cc67afee0c4ab4aa81f40beaf2b67d, type: 3}
    - time: 0.25
      value: {fileID: 21300000, guid: d41c8df76b7f96045ab5ff582ebfdf7c, type: 3}
    - time: 0.29166666
      value: {fileID: 21300000, guid: 3166133431bfcce429b62c0eacc56d39, type: 3}
    - time: 0.33333334
      value: {fileID: 21300000, guid: 3ede5472084b069438f6fb705b7f5d95, type: 3}
    - time: 0.375
      value: {fileID: 21300000, guid: f35cc39811a580c43878e7b52f171c71, type: 3}
    - time: 0.41666666
      value: {fileID: 21300000, guid: 08f7d5add3449e54ab5a841a14cf281b, type: 3}
    - time: 0.45833334
      value: {fileID: 21300000, guid: d9f2e42688695c14caf17862142b80e6, type: 3}
    - time: 0.5
      value: {fileID: 21300000, guid: fc31ccd30baeb214687978ec18c5831c, type: 3}
    - time: 0.5416667
      value: {fileID: 21300000, guid: dd1902767e01abf47ac5a6a77ab52ed0, type: 3}
    - time: 0.5833333
      value: {fileID: 21300000, guid: 36d13c821c805c54b8992d777c96b9aa, type: 3}
    - time: 0.625
      value: {fileID: 21300000, guid: 66ba994a2c491d548939100c78ec78d7, type: 3}
    - time: 0.6666667
      value: {fileID: 21300000, guid: 91854fe1afabaca4c9f2a7e06e676297, type: 3}
    - time: 0.7083333
      value: {fileID: 21300000, guid: f936f8f75ac908d4581402c1106e18bf, type: 3}
    - time: 0.75
      value: {fileID: 21300000, guid: f055f0779a976e640aa9a999ac914eeb, type: 3}
    - time: 0.7916667
      value: {fileID: 21300000, guid: aa1f651f8fe178d4ebea9012bff0de0c, type: 3}
    - time: 0.8333333
      value: {fileID: 21300000, guid: 35829c06865508b45afda2903d1e8471, type: 3}
    - time: 0.875
      value: {fileID: 21300000, guid: 7ea47db59214a5949878a9becff31872, type: 3}
    - time: 0.9166667
      value: {fileID: 21300000, guid: b806f76fb3dfe074b9667c906cf56624, type: 3}
    - time: 0.9583333
      value: {fileID: 21300000, guid: 40930090af7bd9947b4a0921a58d869f, type: 3}
    - time: 1
      value: {fileID: 21300000, guid: 801fb0884b0b6444da805c1f8cfaf45a, type: 3}
    - time: 1.0416666
      value: {fileID: 21300000, guid: 78ed10088b73800478766a7d3a81414d, type: 3}
    - time: 1.0833334
      value: {fileID: 21300000, guid: 8491a4a1911afd74a826594a966d62a0, type: 3}
    - time: 1.125
      value: {fileID: 21300000, guid: 7e43d279a05039b4ea3fe3b51b88e52c, type: 3}
    - time: 1.1666666
      value: {fileID: 21300000, guid: 62ab72c82a781d2499da1db0965cba8f, type: 3}
    - time: 1.2083334
      value: {fileID: 21300000, guid: 05f2efd9cfb1fe146be87b28a79eedc2, type: 3}
    - time: 1.25
      value: {fileID: 21300000, guid: 2e5deeb638b5efa4da3511c826a9af6c, type: 3}
    - time: 1.2916666
      value: {fileID: 21300000, guid: 2d705b2fe1090b34face3e5662634085, type: 3}
    - time: 1.3333334
      value: {fileID: 21300000, guid: 9547240ddb72b52459e39a5adf81346f, type: 3}
    - time: 1.375
      value: {fileID: 21300000, guid: 33c17344eec0eb7429c9b246c8629a83, type: 3}
    - time: 1.4166666
      value: {fileID: 21300000, guid: 0b4dbf00b38bc374f9b5be1c21f76415, type: 3}
    - time: 1.4583334
      value: {fileID: 21300000, guid: 3e685c58d480e3e40b56cb1d5e2f23ee, type: 3}
    - time: 1.5
      value: {fileID: 21300000, guid: 0a95f6876b7612f4785955a330dda99c, type: 3}
    - time: 1.5416666
      value: {fileID: 21300000, guid: 818b199929985524aaaf124634642160, type: 3}
    attribute: m_Sprite
    path: 
    classID: 114
    script: {fileID: -765806418, guid: f70555f144d8491a825f0804e09c671c, type: 3}
  m_SampleRate: 24
  m_WrapMode: 0
  m_Bounds:
    m_Center: {x: 0, y: 0, z: 0}
    m_Extent: {x: 0, y: 0, z: 0}
  m_ClipBindingConstant:
    genericBindings:
    - serializedVersion: 2
      path: 0
      attribute: 2015549526
      script: {fileID: -765806418, guid: f70555f144d8491a825f0804e09c671c, type: 3}
      typeID: 114
      customType: 0
      isPPtrCurve: 1
    pptrCurveMapping:
    - {fileID: 21300000, guid: 63ccc3c840fe0634b880ae4b39a7005f, type: 3}
    - {fileID: 21300000, guid: 3944509d0d494914997bf4d34df9020c, type: 3}
    - {fileID: 21300000, guid: 1efeb7c5dcc7a374ab52c1b6a0dba800, type: 3}
    - {fileID: 21300000, guid: 84e78fae7ee83dc46939b66ac7faf829, type: 3}
    - {fileID: 21300000, guid: 42652fb82afccfc48ac1724941415156, type: 3}
    - {fileID: 21300000, guid: 53cc67afee0c4ab4aa81f40beaf2b67d, type: 3}
    - {fileID: 21300000, guid: d41c8df76b7f96045ab5ff582ebfdf7c, type: 3}
    - {fileID: 21300000, guid: 3166133431bfcce429b62c0eacc56d39, type: 3}
    - {fileID: 21300000, guid: 3ede5472084b069438f6fb705b7f5d95, type: 3}
    - {fileID: 21300000, guid: f35cc39811a580c43878e7b52f171c71, type: 3}
    - {fileID: 21300000, guid: 08f7d5add3449e54ab5a841a14cf281b, type: 3}
    - {fileID: 21300000, guid: d9f2e42688695c14caf17862142b80e6, type: 3}
    - {fileID: 21300000, guid: fc31ccd30baeb214687978ec18c5831c, type: 3}
    - {fileID: 21300000, guid: dd1902767e01abf47ac5a6a77ab52ed0, type: 3}
    - {fileID: 21300000, guid: 36d13c821c805c54b8992d777c96b9aa, type: 3}
    - {fileID: 21300000, guid: 66ba994a2c491d548939100c78ec78d7, type: 3}
    - {fileID: 21300000, guid: 91854fe1afabaca4c9f2a7e06e676297, type: 3}
    - {fileID: 21300000, guid: f936f8f75ac908d4581402c1106e18bf, type: 3}
    - {fileID: 21300000, guid: f055f0779a976e640aa9a999ac914eeb, type: 3}
    - {fileID: 21300000, guid: aa1f651f8fe178d4ebea9012bff0de0c, type: 3}
    - {fileID: 21300000, guid: 35829c06865508b45afda2903d1e8471, type: 3}
    - {fileID: 21300000, guid: 7ea47db59214a5949878a9becff31872, type: 3}
    - {fileID: 21300000, guid: b806f76fb3dfe074b9667c906cf56624, type: 3}
    - {fileID: 21300000, guid: 40930090af7bd9947b4a0921a58d869f, type: 3}
    - {fileID: 21300000, guid: 801fb0884b0b6444da805c1f8cfaf45a, type: 3}
    - {fileID: 21300000, guid: 78ed10088b73800478766a7d3a81414d, type: 3}
    - {fileID: 21300000, guid: 8491a4a1911afd74a826594a966d62a0, type: 3}
    - {fileID: 21300000, guid: 7e43d279a05039b4ea3fe3b51b88e52c, type: 3}
    - {fileID: 21300000, guid: 62ab72c82a781d2499da1db0965cba8f, type: 3}
    - {fileID: 21300000, guid: 05f2efd9cfb1fe146be87b28a79eedc2, type: 3}
    - {fileID: 21300000, guid: 2e5deeb638b5efa4da3511c826a9af6c, type: 3}
    - {fileID: 21300000, guid: 2d705b2fe1090b34face3e5662634085, type: 3}
    - {fileID: 21300000, guid: 9547240ddb72b52459e39a5adf81346f, type: 3}
    - {fileID: 21300000, guid: 33c17344eec0eb7429c9b246c8629a83, type: 3}
    - {fileID: 21300000, guid: 0b4dbf00b38bc374f9b5be1c21f76415, type: 3}
    - {fileID: 21300000, guid: 3e685c58d480e3e40b56cb1d5e2f23ee, type: 3}
    - {fileID: 21300000, guid: 0a95f6876b7612f4785955a330dda99c, type: 3}
    - {fileID: 21300000, guid: 818b199929985524aaaf124634642160, type: 3}
  m_AnimationClipSettings:
    serializedVersion: 2
    m_AdditiveReferencePoseClip: {fileID: 0}
    m_AdditiveReferencePoseTime: 0
    m_StartTime: 0
    m_StopTime: 1.5833333
    m_OrientationOffsetY: 0
    m_Level: 0
    m_CycleOffset: 0
    m_HasAdditiveReferencePose: 0
    m_LoopTime: 0
    m_LoopBlend: 0
    m_LoopBlendOrientation: 0
    m_LoopBlendPositionY: 0
    m_LoopBlendPositionXZ: 0
    m_KeepOriginalOrientation: 0
    m_KeepOriginalPositionY: 1
    m_KeepOriginalPositionXZ: 0
    m_HeightFromFeet: 0
    m_Mirror: 0
  m_EditorCurves: []
  m_EulerEditorCurves: []
  m_HasGenericRootTransform: 0
  m_HasMotionFloatCurves: 0
  m_GenerateMotionCurves: 0
  m_Events: []
